[npc]
NULL
down
0
7
406
NULL
0
-1
0
false
false
false
[/npc]
[npc]
Security Guard
down
36
30
402
NULL
0
-1
1
false
false
false
[/npc]
[npc]
Receptionist
right
328
6
406
NULL
0
-1
2
false
false
false
[/npc]
[npc]
Fat Boy
down
351
31
410
NULL
0
-1
4,5,6
false
false
false
[/npc]
[npc]
Scientist
left
343
26
382
NULL
0
-1
3
false
false
false
[/npc]
[npc]
Scientist
left
279
6
382
NULL
0
-1
3
false
false
false
[/npc]
[npc]
Scientist
left
279
21
378
NULL
0
-1
3
false
false
false
[/npc]
[npc]
Scientist
left
279
21
382
NULL
0
-1
8
false
false
false
[/npc]
[npc]
Volunteer
down
111
12
99
NULL
0
-1
9
true
false
false
[/npc]
[npc]
NULL
down
0
9
8
NULL
0
-1
7
false
true
false
[/npc]
[warp]
7
419
33
31
6
-2
0
[/warp]
[warp]
32
402
32
363
-47
-18
0
[/warp]
[warp]
33
363
31
402
-47
-18
0
[/warp]
[warp]
29
363
30
323
-47
-18
0
[/warp]
[warp]
29
323
30
363
-47
-18
0
[/warp]
[warp]
33
323
32
283
-47
-18
0
[/warp]
[warp]
33
283
32
323
-47
-18
0
[/warp]
[warp]
29
283
30
243
-47
-18
0
[/warp]
[warp]
29
243
30
283
-47
-18
0
[/warp]
[warp]
33
243
32
203
-47
-18
0
[/warp]
[warp]
33
203
32
243
-47
-18
0
[/warp]
[warp]
18
203
24
163
-47
-18
0
[/warp]
[warp]
23
163
19
203
-47
-18
0
[/warp]
[warp]
33
163
34
123
-47
-18
0
[/warp]
[warp]
35
123
32
163
-47
-18
0
[/warp]
[warp]
20
123
21
83
-47
-18
0
[/warp]
[warp]
20
83
21
123
-47
-18
0
[/warp]
[warp]
24
83
13
42
-47
-18
0
[/warp]
[warp]
14
42
23
83
-47
-18
0
[/warp]
[warp]
10
42
11
2
-47
-18
0
[/warp]
[warp]
10
2
11
42
-47
-18
0
[/warp]
[warp]
18
367
8
139
-47
-18
0
[/warp]
[warp]
7
139
19
367
-47
-18
0
[/warp]
[warp]
3
367
34
327
-47
-18
0
[/warp]
[warp]
35
327
4
367
-47
-18
0
[/warp]
[warp]
8
382
37
209
-47
-18
0
[/warp]
[warp]
37
209
8
381
-47
-18
0
[/warp]
[warp]
35
382
15
126
-47
-18
0
[/warp]
[warp]
15
127
35
381
-47
-18
0
[/warp]
[warp]
5
327
18
248
-47
-18
0
[/warp]
[warp]
19
248
6
327
-47
-18
0
[/warp]
[warp]
4
336
13
85
-47
-18
0
[/warp]
[warp]
14
85
5
336
-47
-18
0
[/warp]
[warp]
15
334
9
165
-47
-18
0
[/warp]
[warp]
10
165
14
334
-47
-18
0
[/warp]
[warp]
10
169
6
6
-47
-18
0
[/warp]
[warp]
6
5
9
169
-47
-18
0
[/warp]
[warp]
34
343
5
208
-47
-18
0
[/warp]
[warp]
5
209
34
342
-47
-18
0
[/warp]
[warp]
31
335
19
286
-47
-18
0
[/warp]
[warp]
19
287
31
334
-47
-18
0
[/warp]
[warp]
4
343
3
263
-47
-18
0
[/warp]
[warp]
4
263
4
342
-47
-18
0
[/warp]
[warp]
15
263
26
100
-47
-18
0
[/warp]
[warp]
27
100
14
263
-47
-18
0
[/warp]
[warp]
13
290
16
56
-47
-18
0
[/warp]
[warp]
15
56
14
290
-47
-18
0
[/warp]
[warp]
3
303
20
59
-47
-18
0
[/warp]
[warp]
19
59
4
303
-47
-18
0
[/warp]
[warp]
19
296
20
50
-47
-18
0
[/warp]
[warp]
19
50
18
296
-47
-18
0
[/warp]
[warp]
30
178
34
246
-47
-18
0
[/warp]
[warp]
35
246
31
178
-47
-18
0
[/warp]
[warp]
16
131
6
133
-47
-18
0
[/warp]
[warp]
7
133
15
131
-47
-18
0
[/warp]