[warp]
12
3
48
59
38
-42
0
[/warp]
[warp]
13
3
48
59
38
-42
0
[/warp]
[warp]
14
3
48
59
38
-42
0
[/warp]
[warp]
15
3
48
59
38
-42
0
[/warp]
[warp]
16
3
48
59
38
-42
0
[/warp]
[warp]
17
3
48
59
38
-42
0
[/warp]
[warp]
18
3
48
59
38
-42
0
[/warp]
[warp]
19
3
48
59
38
-42
0
[/warp]
[warp]
15
27
19
3
2
-28
0
[/warp]