[warp]
22
136
22
136
34
-44
0
[/warp]
[warp]
23
136
23
136
34
-44
0
[/warp]
[warp]
24
136
24
136
34
-44
0
[/warp]
[warp]
38
42
37
47
2
-34
28
[/warp]
[warp]
25
47
19
34
2
-33
0
[/warp]