[warp]
48
38
49
7
43
-47
0
[/warp]
[warp]
49
38
50
7
43
-47
0
[/warp]
[warp]
60
44
6
8
-43
-34
0
[/warp]
[warp]
60
45
6
9
-43
-34
0
[/warp]
[warp]
34
44
17
7
-43
-32
0
[/warp]
[warp]
78
23
4
14
-43
-29
0
[/warp]
[warp]
17
22
22
13
-43
-27
0
[/warp]
[warp]
17
23
22
13
-43
-27
0
[/warp]
[warp]
48
7
15
28
-43
-25
0
[/warp]