[npc]
NULL
down
0
7
11
NULL
0
-1
0
false
false
false
[/npc]
[npc]
NULL
down
0
15
11
NULL
0
-1
1
false
false
false
[/npc]
[npc]
NULL
down
0
21
7
NULL
0
-1
2
false
false
false
[/npc]
[warp]
6
5
15
16
-45
-31
0
[/warp]
[warp]
19
15
5
7
-45
-30
0
[/warp]
[warp]
18
6
10
18
-48
-23
0
[/warp]
[warp]
10
11
5
7
-48
-16
0
[/warp]
[warp]
5
16
5
9
-48
-24
0
[/warp]
[warp]
10
16
5
9
-45
-32
0
[/warp]
[warp]
11
20
13
11
15
15
0
[/warp]
[warp]
12
20
14
11
15
15
0
[/warp]